{
    "urlSlack": "",
    "urlStatic":"",
    "urlServer":"",
    "dirReport":"./volume/public",
    "dirData": "./volume/data/",
    "dirEnv":"./volume/environment/",
    "dirFeat":"./volume/features/",
    "dirTesfile":"./volume/testfile",
    "dirBatchfile":"./volume/batchFiles/",
    "fileTestName":"profile.json"
}