[
 {
  "[": " {"
 },
 {
  "[": "  \"20220906\": \"20220906\","
 },
 {
  "[": "  \"PJ\": \"PJ\","
 },
 {
  "[": "  \"MN\": \"TS\","
 },
 {
  "[": "  \"010\": \"010\","
 },
 {
  "[": "  \"189.946.081.927,92\": \"\""
 },
 {
  "[": " },"
 },
 {
  "[": " {"
 },
 {
  "[": "  \"20220906\": \"20220906\","
 },
 {
  "[": "  \"PJ\": \"PN\","
 },
 {
  "[": "  \"MN\": \"MN\","
 },
 {
  "[": "  \"010\": \"010\","
 },
 {
  "[": "  \"189.946.081.927,92\": \"78.609.956.168,35\""
 },
 {
  "[": " },"
 },
 {
  "[": " {"
 },
 {
  "[": "  \"20220906\": \"20220906\","
 },
 {
  "[": "  \"PJ\": \"PN\","
 },
 {
  "[": "  \"MN\": \"TS\","
 },
 {
  "[": "  \"010\": \"010\","
 },
 {
  "[": "  \"189.946.081.927,92\": \"0,00\""
 },
 {
  "[": " },"
 },
 {
  "[": " {"
 },
 {
  "[": "  \"20220906\": \"20220906\","
 },
 {
  "[": "  \"PJ\": \"PJ\","
 },
 {
  "[": "  \"MN\": \"MN\","
 },
 {
  "[": "  \"010\": \"020\","
 },
 {
  "[": "  \"189.946.081.927,92\": \"186.651.947.750,52\""
 },
 {
  "[": " },"
 },
 {
  "[": " {"
 },
 {
  "[": "  \"20220906\": \"20220906\","
 },
 {
  "[": "  \"PJ\": \"PJ\","
 },
 {
  "[": "  \"MN\": \"TS\","
 },
 {
  "[": "  \"010\": \"020\","
 },
 {
  "[": "  \"189.946.081.927,92\": \"0,00\""
 },
 {
  "[": " },"
 },
 {
  "[": " {"
 },
 {
  "[": "  \"20220906\": \"20220906\","
 },
 {
  "[": "  \"PJ\": \"PN\","
 },
 {
  "[": "  \"MN\": \"MN\","
 },
 {
  "[": "  \"010\": \"020\","
 },
 {
  "[": "  \"189.946.081.927,92\": \"770.403.156.579,33\""
 },
 {
  "[": " },"
 },
 {
  "[": " {"
 },
 {
  "[": "  \"20220906\": \"20220906\","
 },
 {
  "[": "  \"PJ\": \"PN\","
 },
 {
  "[": "  \"MN\": \"TS\","
 },
 {
  "[": "  \"010\": \"020\","
 },
 {
  "[": "  \"189.946.081.927,92\": \"0,00\""
 },
 {
  "[": " },"
 },
 {
  "[": " {"
 },
 {
  "[": "  \"20220906\": \"20220906\","
 },
 {
  "[": "  \"PJ\": \"PJ\","
 },
 {
  "[": "  \"MN\": \"MN\","
 },
 {
  "[": "  \"010\": \"030\","
 },
 {
  "[": "  \"189.946.081.927,92\": \"98.203.046.178,42\""
 },
 {
  "[": " },"
 },
 {
  "[": " {"
 },
 {
  "[": "  \"20220906\": \"20220906\","
 },
 {
  "[": "  \"PJ\": \"PN\","
 },
 {
  "[": "  \"MN\": \"MN\","
 },
 {
  "[": "  \"010\": \"030\","
 },
 {
  "[": "  \"189.946.081.927,92\": \"86.527.988.237,62\""
 },
 {
  "[": " },"
 },
 {
  "[": " {"
 },
 {
  "[": "  \"20220906\": \"20220906\","
 },
 {
  "[": "  \"PJ\": \"PJ\","
 },
 {
  "[": "  \"MN\": \"MN\","
 },
 {
  "[": "  \"010\": \"095\","
 },
 {
  "[": "  \"189.946.081.927,92\": \"242.355.185,06\""
 },
 {
  "[": " },"
 },
 {
  "[": " {"
 },
 {
  "[": "  \"20220906\": \"20220906\","
 },
 {
  "[": "  \"PJ\": \"PN\","
 },
 {
  "[": "  \"MN\": \"MN\","
 },
 {
  "[": "  \"010\": \"095\","
 },
 {
  "[": "  \"189.946.081.927,92\": \"839.583.081,60\""
 },
 {
  "[": " }"
 },
 {
  "[": "]"
 }
]