nro_cdat;tipo_documento;nro_documento;nombre_cliente;monto_capital;tasa EA;plazo_dias
951700049943;1;1019457389;Nombres y apellidos completos del Cliente;162994357.85;0.050704;402
951080065549;1;1021865893;Nombres y apellidos completos del Cliente;139859732.21;0.047419;101
952110028465;1;80473809;Nombres y apellidos completos del Cliente;110000000;0.061323;455
951700090752;3;634821;Nombres y apellidos completos del Cliente;78000000;0.053867;450
951060090752;1;52987651;Nombres y apellidos completos del Cliente;68911938.64;0.027067;481
954030072291;3;523876;Nombres y apellidos completos del Cliente;67500000;0.07606;607
956100054902;1;35678340;Nombres y apellidos completos del Cliente;60500000;0.078818;596
